{
  "version": "1.0.0-*",
  "buildOptions": {
    "emitEntryPoint": true
  },

  "dependencies": {
    "Microsoft.Extensions.Logging": "1.0.0",
    "Microsoft.Extensions.Logging.Console": "1.0.0",
    "Microsoft.Extensions.Logging.Debug": "1.0.0",
    "Microsoft.NETCore.App": {
        "type": "platform",
        "version": "1.0.0"
    }
  },

  "frameworks": {
    "netcoreapp1.0": {
      "imports": "dnxcore50"
    }
  }
}
